\relax 
\providecommand\hyper@newdestlabel[2]{}
\providecommand\HyperFirstAtBeginDocument{\AtBeginDocument}
\HyperFirstAtBeginDocument{\ifx\hyper@anchor\@undefined
\global\let\oldcontentsline\contentsline
\gdef\contentsline#1#2#3#4{\oldcontentsline{#1}{#2}{#3}}
\global\let\oldnewlabel\newlabel
\gdef\newlabel#1#2{\newlabelxx{#1}#2}
\gdef\newlabelxx#1#2#3#4#5#6{\oldnewlabel{#1}{{#2}{#3}}}
\AtEndDocument{\ifx\hyper@anchor\@undefined
\let\contentsline\oldcontentsline
\let\newlabel\oldnewlabel
\fi}
\fi}
\global\let\hyper@last\relax 
\gdef\HyperFirstAtBeginDocument#1{#1}
\providecommand\HyField@AuxAddToFields[1]{}
\providecommand\HyField@AuxAddToCoFields[2]{}
\@nameuse{bbl@beforestart}
\catcode `"\active 
\citation{AhujaDual}
\citation{AhujaDual}
\providecommand \oddpage@label [2]{}
\babel@aux{ngerman}{}
\newlabel{A}{{{$\mathcal  {A}$}}{1}{}{Doc-Start}{}}
\@writefile{toc}{\contentsline {section}{\numberline {1}Reduktion}{1}{section.1}\protected@file@percent }
\newlabel{reductions}{{1}{1}{Reduktion}{section.1}{}}
\newlabel{B}{{{$\mathcal  {B}$}}{1}{Reduktion}{section.1}{}}
\citation{AhujaDual}
\newlabel{C}{{{$\mathcal  {C}$}}{2}{}{section*.1}{}}
\newlabel{4}{{{4}}{2}{}{section*.1}{}}
\citation{AhujaDual}
\citation{NF}
\newlabel{3:A}{{{$P_3\tmspace  -\thinmuskip {.1667em}:\tmspace  -\thinmuskip {.1667em}\mathcal  {A}$}}{3}{}{section*.2}{}}
\newlabel{3:1}{{{$P_3\tmspace  -\thinmuskip {.1667em}:\tmspace  -\thinmuskip {.1667em}1$}}{3}{}{section*.2}{}}
\newlabel{3:B}{{{$P_3\tmspace  -\thinmuskip {.1667em}:\tmspace  -\thinmuskip {.1667em}\mathcal  {B}$}}{3}{}{section*.2}{}}
\newlabel{P3AL}{{{$P_3\tmspace  -\thinmuskip {.1667em}:\tmspace  -\thinmuskip {.1667em}\mathcal  {A}'$}}{3}{}{section*.3}{}}
\newlabel{3:2}{{{$P_2\tmspace  -\thinmuskip {.1667em}:\tmspace  -\thinmuskip {.1667em}3$}}{3}{}{section*.3}{}}
\citation{AhujaDual}
\citation{Rock}
\newlabel{star}{{{$\star $}}{4}{}{section*.4}{}}
\@writefile{toc}{\contentsline {section}{\numberline {2}\tmspace  -\thinmuskip {.1667em}Eigenschaften der Reduktion}{5}{section.2}\protected@file@percent }
\@writefile{toc}{\contentsline {subsection}{\numberline {2.1}Die Kostenfunktionen}{5}{subsection.2.1}\protected@file@percent }
\newlabel{Kostenfunk}{{2.1}{5}{Die Kostenfunktionen}{subsection.2.1}{}}
\citation{AhujaDual}
\citation{AhujaDual}
\citation{FiN}
\@writefile{toc}{\contentsline {subsection}{\numberline {2.2}Der Reduktionsgraph}{6}{subsection.2.2}\protected@file@percent }
\@writefile{toc}{\contentsline {section}{\numberline {3}Convex Cost Scaling}{6}{section.3}\protected@file@percent }
\newlabel{bullets}{{{$\bullet $}}{6}{}{section*.5}{}}
\citation{GoldbergTarjan}
\citation{GoldbergTarjan}
\citation{AhujaDual}
\@writefile{loa}{\contentsline {algocf}{\numberline {1}{\ignorespaces \texttt  {improve\_approx}}}{8}{algocf.1}\protected@file@percent }
\@writefile{toc}{\contentsline {subsection}{\numberline {3.1}Operationsausführungsgrenzen}{8}{subsection.3.1}\protected@file@percent }
\citation{AhujaDual}
\citation{AhujaDual}
\citation{AhujaDual}
\@writefile{toc}{\contentsline {subsection}{\numberline {3.2}Implementation}{9}{subsection.3.2}\protected@file@percent }
\@writefile{loa}{\contentsline {algocf}{\numberline {2}{\ignorespaces \small  \texttt  {cost\_scaling}}}{9}{algocf.2}\protected@file@percent }
\citation{DataStruct}
\citation{GoldbergTarjan}
\citation{BiasedTree}
\citation{DataStruct}
\citation{GoldbergTarjan}
\citation{Bound}
\bibcite{AhujaDual}{1}
\bibcite{GoldbergTarjan}{2}
\bibcite{FiN}{3}
\bibcite{NF}{4}
\bibcite{Rock}{5}
\bibcite{DataStruct}{6}
\bibcite{Bound}{7}
\bibcite{BiasedTree}{8}
\citation{NF}
\@writefile{toc}{\contentsline {subsection}{\numberline {3.3}Baumdatenstruktur für zulässige Pfade}{10}{subsection.3.3}\protected@file@percent }
